<?xml version="1.0" encoding="utf-8"?>
<!-- Generator: Adobe Illustrator 16.0.0, SVG Export Plug-In . SVG Version: 6.00 Build 0)  -->
<!DOCTYPE svg PUBLIC "-//W3C//DTD SVG 1.1//EN" "http://www.w3.org/Graphics/SVG/1.1/DTD/svg11.dtd">
<svg version="1.1" id="Layer_1" xmlns="http://www.w3.org/2000/svg" xmlns:xlink="http://www.w3.org/1999/xlink" x="0px" y="0px"
	 width="28px" height="28px" viewBox="0 0 28 28" enable-background="new 0 0 28 28" xml:space="preserve">
<g>
	<linearGradient id="SVGID_1_" gradientUnits="userSpaceOnUse" x1="0.0498" y1="13.9995" x2="27.9492" y2="13.9995">
		<stop  offset="0" style="stop-color:#09A275"/>
		<stop  offset="1" style="stop-color:#D96F0E"/>
	</linearGradient>
	<path fill="url(#SVGID_1_)" d="M4.929,4.928C7.352,2.506,10.574,1.171,14,1.171c3.428,0,6.648,1.334,9.07,3.757
		c2.424,2.424,3.758,5.646,3.758,9.072s-1.334,6.648-3.758,9.07c-2.422,2.423-5.644,3.759-9.07,3.759
		c-3.426,0-6.648-1.336-9.071-3.759C2.507,20.648,1.171,17.427,1.171,14C1.171,10.574,2.507,7.353,4.929,4.928 M4.136,4.136
		c-5.448,5.448-5.448,14.281,0,19.729c5.448,5.445,14.281,5.445,19.729,0c5.445-5.448,5.445-14.281,0-19.729
		C18.417-1.312,9.583-1.312,4.136,4.136"/>
	<linearGradient id="SVGID_2_" gradientUnits="userSpaceOnUse" x1="8.1328" y1="13.9741" x2="19.8184" y2="13.9741">
		<stop  offset="0" style="stop-color:#09A275"/>
		<stop  offset="1" style="stop-color:#D96F0E"/>
	</linearGradient>
	<path fill="url(#SVGID_2_)" d="M19.218,19.816c-0.159,0-0.311-0.062-0.425-0.174L8.308,9.158C8.195,9.043,8.133,8.893,8.133,8.733
		c0-0.161,0.062-0.312,0.175-0.424c0.114-0.114,0.265-0.177,0.424-0.177c0.162,0,0.312,0.063,0.426,0.177l10.484,10.485
		c0.233,0.233,0.233,0.614,0,0.849C19.527,19.756,19.379,19.816,19.218,19.816"/>
	<linearGradient id="SVGID_3_" gradientUnits="userSpaceOnUse" x1="8.2656" y1="13.9756" x2="19.6846" y2="13.9756">
		<stop  offset="0" style="stop-color:#09A275"/>
		<stop  offset="1" style="stop-color:#D96F0E"/>
	</linearGradient>
	<path fill="url(#SVGID_3_)" d="M19.218,19.686c-0.125,0-0.241-0.049-0.329-0.138L8.403,9.063c-0.183-0.182-0.183-0.479,0-0.66
		c0.088-0.088,0.205-0.137,0.329-0.137s0.244,0.049,0.331,0.137l10.484,10.486c0.184,0.182,0.184,0.479,0,0.659
		C19.46,19.637,19.343,19.686,19.218,19.686"/>
	<linearGradient id="SVGID_4_" gradientUnits="userSpaceOnUse" x1="8.1328" y1="13.9741" x2="19.8184" y2="13.9741">
		<stop  offset="0" style="stop-color:#09A275"/>
		<stop  offset="1" style="stop-color:#D96F0E"/>
	</linearGradient>
	<path fill="url(#SVGID_4_)" d="M8.732,19.816c-0.16,0-0.311-0.062-0.424-0.174c-0.113-0.115-0.175-0.265-0.175-0.426
		c0-0.16,0.062-0.313,0.175-0.424L18.793,8.309c0.113-0.114,0.266-0.177,0.425-0.177c0.161,0,0.312,0.063,0.425,0.177
		c0.113,0.112,0.176,0.263,0.176,0.424c0,0.16-0.063,0.311-0.176,0.425L9.157,19.643C9.044,19.756,8.894,19.816,8.732,19.816"/>
	<linearGradient id="SVGID_5_" gradientUnits="userSpaceOnUse" x1="8.2656" y1="13.9756" x2="19.6855" y2="13.9756">
		<stop  offset="0" style="stop-color:#09A275"/>
		<stop  offset="1" style="stop-color:#D96F0E"/>
	</linearGradient>
	<path fill="url(#SVGID_5_)" d="M8.732,19.686c-0.125,0-0.241-0.049-0.329-0.138c-0.183-0.181-0.183-0.478,0-0.659L18.889,8.403
		c0.088-0.088,0.204-0.137,0.329-0.137s0.242,0.049,0.33,0.137c0.089,0.088,0.138,0.206,0.138,0.33s-0.049,0.242-0.138,0.33
		L9.063,19.548C8.976,19.637,8.857,19.686,8.732,19.686"/>
</g>
</svg>
